EESchema Schematic File Version 4
EELAYER 30 0
EELAYER END
$Descr A4 11693 8268
encoding utf-8
Sheet 1 1
Title ""
Date ""
Rev ""
Comp ""
Comment1 ""
Comment2 ""
Comment3 ""
Comment4 ""
$EndDescr
$Comp
L Device:LED GREEN1
U 1 1 60B82F88
P 5300 3050
F 0 "GREEN1" H 5293 3267 50  0000 C CNN
F 1 "LED" H 5293 3176 50  0000 C CNN
F 2 "LED_THT:LED_D5.0mm" H 5300 3050 50  0001 C CNN
F 3 "~" H 5300 3050 50  0001 C CNN
	1    5300 3050
	1    0    0    -1  
$EndComp
$Comp
L Device:LED GREEN2
U 1 1 60B837FE
P 6050 3050
F 0 "GREEN2" H 6043 3267 50  0000 C CNN
F 1 "LED" H 6043 3176 50  0000 C CNN
F 2 "LED_THT:LED_D5.0mm" H 6050 3050 50  0001 C CNN
F 3 "~" H 6050 3050 50  0001 C CNN
	1    6050 3050
	1    0    0    -1  
$EndComp
$Comp
L Device:LED BLUE1
U 1 1 60B84182
P 5300 3550
F 0 "BLUE1" H 5293 3767 50  0000 C CNN
F 1 "LED" H 5293 3676 50  0000 C CNN
F 2 "LED_THT:LED_D5.0mm" H 5300 3550 50  0001 C CNN
F 3 "~" H 5300 3550 50  0001 C CNN
	1    5300 3550
	1    0    0    -1  
$EndComp
$Comp
L Device:LED BLUE2
U 1 1 60B842D9
P 6050 3550
F 0 "BLUE2" H 6043 3767 50  0000 C CNN
F 1 "LED" H 6043 3676 50  0000 C CNN
F 2 "LED_THT:LED_D5.0mm" H 6050 3550 50  0001 C CNN
F 3 "~" H 6050 3550 50  0001 C CNN
	1    6050 3550
	1    0    0    -1  
$EndComp
$Comp
L Device:LED RED1
U 1 1 60B84706
P 5300 4050
F 0 "RED1" H 5293 4267 50  0000 C CNN
F 1 "LED" H 5293 4176 50  0000 C CNN
F 2 "LED_THT:LED_D5.0mm" H 5300 4050 50  0001 C CNN
F 3 "~" H 5300 4050 50  0001 C CNN
	1    5300 4050
	1    0    0    -1  
$EndComp
$Comp
L Device:D_Zener D3
U 1 1 60B85A06
P 6700 4050
F 0 "D3" H 6700 4267 50  0000 C CNN
F 1 "D_Zener" H 6700 4176 50  0000 C CNN
F 2 "Diode_THT:D_A-405_P5.08mm_Vertical_AnodeUp" H 6700 4050 50  0001 C CNN
F 3 "~" H 6700 4050 50  0001 C CNN
	1    6700 4050
	-1   0    0    1   
$EndComp
$Comp
L Device:D_Zener D2
U 1 1 60B85CF9
P 6700 3550
F 0 "D2" H 6700 3767 50  0000 C CNN
F 1 "D_Zener" H 6700 3676 50  0000 C CNN
F 2 "Diode_THT:D_A-405_P5.08mm_Vertical_AnodeUp" H 6700 3550 50  0001 C CNN
F 3 "~" H 6700 3550 50  0001 C CNN
	1    6700 3550
	-1   0    0    1   
$EndComp
$Comp
L Device:R_US R1
U 1 1 60B89AD0
P 4500 3050
F 0 "R1" H 4568 3096 50  0000 L CNN
F 1 "1K" H 4568 3005 50  0000 L CNN
F 2 "Resistor_THT:R_Axial_DIN0411_L9.9mm_D3.6mm_P5.08mm_Vertical" V 4540 3040 50  0001 C CNN
F 3 "~" H 4500 3050 50  0001 C CNN
	1    4500 3050
	0    -1   -1   0   
$EndComp
$Comp
L Device:R_US R2
U 1 1 60B8A200
P 4500 3550
F 0 "R2" H 4568 3596 50  0000 L CNN
F 1 "1K" H 4568 3505 50  0000 L CNN
F 2 "Resistor_THT:R_Axial_DIN0411_L9.9mm_D3.6mm_P5.08mm_Vertical" V 4540 3540 50  0001 C CNN
F 3 "~" H 4500 3550 50  0001 C CNN
	1    4500 3550
	0    -1   -1   0   
$EndComp
$Comp
L Device:R_US R3
U 1 1 60B8A528
P 4500 4050
F 0 "R3" H 4568 4096 50  0000 L CNN
F 1 "1K" H 4568 4005 50  0000 L CNN
F 2 "Resistor_THT:R_Axial_DIN0411_L9.9mm_D3.6mm_P5.08mm_Vertical" V 4540 4040 50  0001 C CNN
F 3 "~" H 4500 4050 50  0001 C CNN
	1    4500 4050
	0    -1   -1   0   
$EndComp
$Comp
L power:GND #PWR0102
U 1 1 60B8AD73
P 4000 3550
F 0 "#PWR0102" H 4000 3300 50  0001 C CNN
F 1 "GND" H 4005 3377 50  0000 C CNN
F 2 "" H 4000 3550 50  0001 C CNN
F 3 "" H 4000 3550 50  0001 C CNN
	1    4000 3550
	0    1    1    0   
$EndComp
Wire Wire Line
	5150 3050 4650 3050
Wire Wire Line
	5900 3050 5450 3050
Wire Wire Line
	4350 3050 4200 3050
Wire Wire Line
	4200 3050 4200 3550
Wire Wire Line
	4200 4050 4350 4050
Wire Wire Line
	5450 4050 6550 4050
Wire Wire Line
	6850 4050 7100 4050
Wire Wire Line
	4650 4050 5150 4050
Wire Wire Line
	5150 3550 4650 3550
Wire Wire Line
	5900 3550 5450 3550
Wire Wire Line
	6550 3550 6200 3550
Wire Wire Line
	4000 3550 4200 3550
Connection ~ 4200 3550
Wire Wire Line
	4200 3550 4200 4050
Wire Wire Line
	4200 3550 4350 3550
Wire Wire Line
	7250 3550 7100 3550
Wire Wire Line
	7100 3050 7100 3550
Connection ~ 7100 3550
Wire Wire Line
	7100 3550 6850 3550
Wire Wire Line
	7100 3550 7100 4050
$Comp
L Device:D_Zener D1
U 1 1 60B84F5A
P 6700 3050
F 0 "D1" H 6700 3267 50  0000 C CNN
F 1 "D_Zener" H 6700 3176 50  0000 C CNN
F 2 "Diode_THT:D_A-405_P5.08mm_Vertical_AnodeUp" H 6700 3050 50  0001 C CNN
F 3 "~" H 6700 3050 50  0001 C CNN
	1    6700 3050
	-1   0    0    1   
$EndComp
Wire Wire Line
	6200 3050 6550 3050
Wire Wire Line
	6850 3050 7100 3050
$Comp
L Device:Battery BT1
U 1 1 60B8D706
P 7250 3750
F 0 "BT1" H 7358 3796 50  0000 L CNN
F 1 "24V" H 7358 3705 50  0000 L CNN
F 2 "Battery:BatteryHolder_Eagle_12BH611-GR" V 7250 3810 50  0001 C CNN
F 3 "~" V 7250 3810 50  0001 C CNN
	1    7250 3750
	1    0    0    -1  
$EndComp
$Comp
L power:GND #PWR01
U 1 1 60B8E5C1
P 7250 4200
F 0 "#PWR01" H 7250 3950 50  0001 C CNN
F 1 "GND" H 7255 4027 50  0000 C CNN
F 2 "" H 7250 4200 50  0001 C CNN
F 3 "" H 7250 4200 50  0001 C CNN
	1    7250 4200
	1    0    0    -1  
$EndComp
Wire Wire Line
	7250 4200 7250 3950
$EndSCHEMATC
